{
    "movability_1": {
        "weight_1": 1.0, 
        "hollowness_0": 0.625, 
        "hollowness_3": 0.188, 
        "size_2": 0.25, 
        "size_0": 0.688, 
        "hollowness_2": 0.063, 
        "hollowness_1": 0.125, 
        "flatness_3": 0.063, 
        "rigidity_0": 0.438, 
        "flatness_2": 0.563, 
        "flatness_1": 0.375, 
        "rigidity_2": 0.188, 
        "rigidity_1": 0.375, 
        "roughness_0": 0.375, 
        "roughness_2": 0.625, 
        "size_3": 0.063
    }, 
    "movability_0": {
        "rigidity_3": 0.094, 
        "hollowness_1": 0.094, 
        "hollowness_0": 0.766, 
        "hollowness_3": 0.031, 
        "roughness_3": 0.172, 
        "roughness_0": 0.25, 
        "rigidity_2": 0.313, 
        "size_2": 0.219, 
        "roughness_1": 0.156, 
        "hollowness_2": 0.109, 
        "flatness_2": 0.156, 
        "rigidity_0": 0.203, 
        "rigidity_1": 0.391, 
        "flatness_1": 0.438, 
        "flatness_0": 0.297, 
        "flatness_3": 0.109, 
        "size_3": 0.125, 
        "size_0": 0.297, 
        "size_1": 0.359, 
        "roughness_2": 0.422, 
        "weight_0": 1.0
    }, 
    "movability_3": {
        "rigidity_0": 0.5, 
        "flatness_2": 1.0, 
        "weight_3": 1.0, 
        "rigidity_1": 0.5, 
        "size_2": 1.0, 
        "roughness_0": 0.5, 
        "roughness_2": 0.5, 
        "hollowness_0": 1.0
    }, 
    "movability_2": {
        "hollowness_1": 0.286, 
        "flatness_1": 0.607, 
        "hollowness_3": 0.036, 
        "weight_2": 1.0, 
        "size_0": 0.464, 
        "hollowness_2": 0.286, 
        "hollowness_0": 0.393, 
        "flatness_0": 0.143, 
        "roughness_1": 0.036, 
        "flatness_2": 0.25, 
        "rigidity_0": 0.357, 
        "roughness_2": 0.286, 
        "rigidity_2": 0.321, 
        "rigidity_3": 0.036, 
        "rigidity_1": 0.286, 
        "roughness_0": 0.679, 
        "size_1": 0.179, 
        "size_2": 0.286, 
        "size_3": 0.071
    }, 
    "blockage_3": {
        "hollowness_1": 0.286, 
        "flatness_1": 0.607, 
        "hollowness_3": 0.036, 
        "weight_2": 1.0, 
        "size_0": 0.464, 
        "hollowness_2": 0.286, 
        "hollowness_0": 0.393, 
        "flatness_0": 0.143, 
        "roughness_1": 0.036, 
        "flatness_2": 0.25, 
        "rigidity_0": 0.357, 
        "roughness_2": 0.286, 
        "rigidity_2": 0.321, 
        "rigidity_3": 0.036, 
        "rigidity_1": 0.286, 
        "roughness_0": 0.679, 
        "size_1": 0.179, 
        "size_2": 0.286, 
        "size_3": 0.071
    }, 
    "blockage_2": {
        "weight_1": 1.0, 
        "hollowness_0": 0.625, 
        "hollowness_3": 0.188, 
        "size_2": 0.25, 
        "size_0": 0.688, 
        "hollowness_2": 0.063, 
        "hollowness_1": 0.125, 
        "flatness_3": 0.063, 
        "rigidity_0": 0.438, 
        "flatness_2": 0.563, 
        "flatness_1": 0.375, 
        "rigidity_2": 0.188, 
        "rigidity_1": 0.375, 
        "roughness_0": 0.375, 
        "roughness_2": 0.625, 
        "size_3": 0.063
    }, 
    "blockage_1": {
        "rigidity_3": 0.094, 
        "hollowness_1": 0.094, 
        "hollowness_0": 0.766, 
        "hollowness_3": 0.031, 
        "roughness_3": 0.172, 
        "roughness_0": 0.25, 
        "rigidity_2": 0.313, 
        "size_2": 0.219, 
        "roughness_1": 0.156, 
        "hollowness_2": 0.109, 
        "flatness_2": 0.156, 
        "rigidity_0": 0.203, 
        "rigidity_1": 0.391, 
        "flatness_1": 0.438, 
        "flatness_0": 0.297, 
        "flatness_3": 0.109, 
        "size_3": 0.125, 
        "size_0": 0.297, 
        "size_1": 0.359, 
        "roughness_2": 0.422, 
        "weight_0": 1.0
    }, 
    "blockage_0": {
        "rigidity_0": 0.5, 
        "flatness_2": 1.0, 
        "weight_3": 1.0, 
        "rigidity_1": 0.5, 
        "size_2": 1.0, 
        "roughness_0": 0.5, 
        "roughness_2": 0.5, 
        "hollowness_0": 1.0
    }, 
    "support_1": {
        "hollowness_1": 0.216, 
        "flatness_1": 0.892, 
        "weight_2": 0.189, 
        "hollowness_0": 0.486, 
        "hollowness_2": 0.297, 
        "flatness_3": 0.108, 
        "rigidity_0": 0.081, 
        "rigidity_1": 0.189, 
        "rigidity_2": 0.73, 
        "weight_1": 0.027, 
        "size_3": 0.297, 
        "weight_0": 0.784, 
        "roughness_0": 0.405, 
        "size_1": 0.703, 
        "roughness_2": 0.324, 
        "roughness_3": 0.27
    }, 
    "support_0": {
        "weight_1": 0.059, 
        "weight_0": 0.765, 
        "weight_2": 0.176, 
        "roughness_0": 0.353, 
        "roughness_2": 0.647, 
        "flatness_2": 0.059, 
        "flatness_3": 0.235, 
        "rigidity_1": 0.941, 
        "rigidity_2": 0.059, 
        "flatness_0": 0.706, 
        "hollowness_1": 0.059, 
        "size_0": 0.706, 
        "size_1": 0.118, 
        "size_2": 0.176, 
        "hollowness_0": 0.941
    }, 
    "support_3": {
        "rigidity_3": 0.158, 
        "weight_1": 0.237, 
        "weight_0": 0.5, 
        "weight_3": 0.053, 
        "weight_2": 0.211, 
        "roughness_0": 0.237, 
        "hollowness_0": 1.0, 
        "roughness_2": 0.474, 
        "flatness_2": 0.711, 
        "rigidity_0": 0.579, 
        "rigidity_1": 0.263, 
        "flatness_0": 0.289, 
        "size_0": 0.368, 
        "roughness_1": 0.263, 
        "size_2": 0.632, 
        "roughness_3": 0.026
    }, 
    "support_2": {
        "rigidity_2": 0.222, 
        "weight_1": 0.278, 
        "weight_0": 0.167, 
        "hollowness_3": 0.333, 
        "hollowness_2": 0.278, 
        "roughness_0": 0.667, 
        "weight_2": 0.556, 
        "rigidity_0": 0.333, 
        "rigidity_1": 0.389, 
        "flatness_1": 1.0, 
        "rigidity_3": 0.056, 
        "hollowness_1": 0.389, 
        "size_2": 0.056, 
        "size_0": 0.944, 
        "roughness_1": 0.056, 
        "roughness_2": 0.278
    }, 
    "containment_0": {
        "hollowness_1": 0.421, 
        "rigidity_2": 1.0, 
        "flatness_1": 1.0, 
        "weight_2": 0.368, 
        "weight_0": 0.632, 
        "hollowness_2": 0.579, 
        "roughness_0": 0.368, 
        "size_1": 0.737, 
        "roughness_2": 0.632, 
        "size_3": 0.263
    }, 
    "containment_1": {
        "rigidity_3": 0.118, 
        "weight_1": 0.176, 
        "weight_0": 0.569, 
        "weight_3": 0.039, 
        "weight_2": 0.216, 
        "roughness_0": 0.255, 
        "hollowness_0": 1.0, 
        "roughness_2": 0.529, 
        "flatness_2": 0.549, 
        "rigidity_0": 0.431, 
        "rigidity_1": 0.431, 
        "rigidity_2": 0.02, 
        "flatness_0": 0.451, 
        "size_0": 0.49, 
        "roughness_1": 0.196, 
        "size_2": 0.51, 
        "roughness_3": 0.02
    }, 
    "containment_2": {
        "weight_1": 0.048, 
        "hollowness_0": 1.0, 
        "roughness_3": 0.476, 
        "roughness_2": 0.048, 
        "flatness_1": 0.667, 
        "rigidity_0": 0.143, 
        "rigidity_1": 0.476, 
        "rigidity_2": 0.381, 
        "flatness_3": 0.333, 
        "size_3": 0.286, 
        "roughness_0": 0.476, 
        "size_1": 0.667, 
        "size_2": 0.048, 
        "weight_0": 0.952
    }, 
    "containment_3": {
        "rigidity_2": 0.211, 
        "weight_1": 0.316, 
        "weight_0": 0.158, 
        "hollowness_3": 0.316, 
        "weight_2": 0.526, 
        "roughness_0": 0.632, 
        "hollowness_2": 0.263, 
        "size_2": 0.053, 
        "flatness_3": 0.053, 
        "rigidity_1": 0.421, 
        "flatness_1": 0.947, 
        "rigidity_3": 0.053, 
        "hollowness_1": 0.421, 
        "rigidity_0": 0.316, 
        "size_0": 0.947, 
        "roughness_1": 0.053, 
        "roughness_2": 0.316
    }
}