{
    "plastic_box_": [
        "plastic_box_5", 
        "plastic_box_10", 
        "plastic_box_8", 
        "plastic_box_9", 
        "plastic_box_2", 
        "plastic_box_6", 
        "plastic_box_1", 
        "plastic_box_7", 
        "plastic_box_4", 
        "plastic_box_3"
    ], 
    "bowl_": [
        "bowl_5", 
        "bowl_9", 
        "bowl_8", 
        "bowl_3", 
        "bowl_2", 
        "bowl_1", 
        "bowl_7", 
        "bowl_6", 
        "bowl_4", 
        "bowl_10"
    ], 
    "to_go_cup_": [
        "to_go_cup_3", 
        "to_go_cup_2", 
        "to_go_cup_1", 
        "to_go_cup_7", 
        "to_go_cup_6", 
        "to_go_cup_5", 
        "to_go_cup_4", 
        "to_go_cup_9", 
        "to_go_cup_8", 
        "to_go_cup_10"
    ], 
    "paper_box_": [
        "paper_box_9", 
        "paper_box_8", 
        "paper_box_6", 
        "paper_box_7", 
        "paper_box_4", 
        "paper_box_5", 
        "paper_box_2", 
        "paper_box_3", 
        "paper_box_1", 
        "paper_box_10"
    ], 
    "metal_box_": [
        "metal_box_10", 
        "metal_box_4", 
        "metal_box_7", 
        "metal_box_6", 
        "metal_box_1", 
        "metal_box_3", 
        "metal_box_2", 
        "metal_box_9", 
        "metal_box_8", 
        "metal_box_5"
    ], 
    "tray_": [
        "tray_3", 
        "tray_2", 
        "tray_1", 
        "tray_7", 
        "tray_6", 
        "tray_5", 
        "tray_4", 
        "tray_9", 
        "tray_8", 
        "tray_10"
    ], 
    "plate_": [
        "plate_8", 
        "plate_9", 
        "plate_6", 
        "plate_7", 
        "plate_4", 
        "plate_2", 
        "plate_3", 
        "plate_1", 
        "plate_5", 
        "plate_10"
    ], 
    "cup_": [
        "cup_10", 
        "cup_1", 
        "cup_8", 
        "cup_9", 
        "cup_4", 
        "cup_5", 
        "cup_6", 
        "cup_2", 
        "cup_7", 
        "cup_3"
    ], 
    "sponge_": [
        "sponge_10", 
        "sponge_9", 
        "sponge_8", 
        "sponge_7", 
        "sponge_6", 
        "sponge_5", 
        "sponge_4", 
        "sponge_3", 
        "sponge_2", 
        "sponge_1"
    ], 
    "ball_": [
        "ball_10", 
        "ball_8", 
        "ball_3", 
        "ball_4", 
        "ball_5", 
        "ball_7", 
        "ball_2", 
        "ball_6", 
        "ball_1", 
        "ball_9"
    ], 
    "book_": [
        "book_8", 
        "book_9", 
        "book_1", 
        "book_2", 
        "book_3", 
        "book_5", 
        "book_6", 
        "book_7", 
        "book_4", 
        "book_10"
    ]
}